-------------------------------------------------------------------------------
Test set: com.openclassrooms.tourguide.TestRewardsService
-------------------------------------------------------------------------------
Tests run: 3, Failures: 0, Errors: 0, Skipped: 0, Time elapsed: 5.092 s - in com.openclassrooms.tourguide.TestRewardsService
